id,name,description,installation_date,customer_id_id,product_id_id
1000,Inst-98037,Last minute installation,2021-10-22,1004,1005
1001,Inst-51519,Customer request #12345,2021-10-05,1005,1003
1002,Inst-12762,Preventive Maintenance,2021-09-01,1000,1000
1003,Inst-22034,Unexpectedly broken,2021-09-06,1001,1000
1004,Inst-97278,Previous item missing,2021-08-02,1002,1002
1005,Inst-12476,Change after bad behavior,2021-08-25,1003,1005
1006,Inst-51115,Promotion,2021-07-21,1004,1005
1007,Inst-97282,Fidelity offer,2021-07-14,1001,1004
1008,Inst-44740,Customer call #4578,2021-10-09,1000,1003
1009,Inst-11213,Sale #88,2021-05-10,1004,1004
1010,Inst-51600,New customer installation,2021-05-17,1002,1000
1011,Inst-97281,Pilot,2021-09-30,1005,1001
1012,Inst-95758,Replacement of product,2021-09-01,1004,1005
1013,Inst-12438,Upgrade to the latest version,2021-07-02,1005,1003
1014,Inst-30279,"False alert, but still we installed the new product",2021-08-03,1000,1000
1015,Inst-90761,Installation went good,2021-07-04,1001,1000
1016,Inst-12460,July 30th: smooth installation,2021-07-30,1002,1002
1017,Inst-00407,I missed parts but found a solution,2021-08-06,1003,1005
1018,Inst-08372,Free installation,2021-08-07,1004,1005
1019,Inst-04729,Customer happy,2021-10-08,1001,1004
1020,Inst-34075,Customer request #56789,2021-09-09,1000,1003
1021,Inst-88728,Customer request #56715,2021-04-10,1004,1004
1022,Inst-10436,Pilot #2,2021-10-11,1002,1000
1023,Inst-47571,Final version,2021-09-12,1005,1001
1024,Inst-75801,Final Final version,2021-10-13,1004,1005
1025,Inst-34816,Final version for good,2021-10-14,1005,1003
1026,Inst-04702,New customer installation,2021-09-15,1000,1000
1027,Inst-23592,Promotion,2021-10-16,1001,1000
1028,Inst-38164,Obsolescence,2021-08-18,1002,1002
1029,Inst-04809,Installation for the king,2021-08-19,1003,1005
1030,Inst-38097,Sale #47,2021-09-20,1004,1005
1031,Inst-70549,Sale #93,2021-08-21,1001,1004
1032,Inst-03780,Training,2021-04-22,1000,1003
1033,Inst-90182,Test,2021-06-23,1004,1004
1034,Inst-09112,Install new product,2021-10-24,1002,1000
1035,Inst-88972,Work during weekend,2021-10-16,1005,1001
